==54717== HEAP SUMMARY:
==54717==     in use at exit: 0 bytes in 0 blocks
==54717==   total heap usage: 16 allocs, 16 frees, 4,344 bytes allocated
==54717==
==54717== All heap blocks were freed -- no leaks are possible
==54717==
==54717== For counts of detected and suppressed errors, rerun with: -v
==54717== Use --track-origins=yes to see where uninitialised values come from
==54717== ERROR SUMMARY: 1 errors from 1 contexts (suppressed: 1 from 1)

==57543== HEAP SUMMARY:
==57543==     in use at exit: 0 bytes in 0 blocks
==57543==   total heap usage: 15 allocs, 15 frees, 3,524 bytes allocated
==57543==
==57543== All heap blocks were freed -- no leaks are possible
==57543==
==57543== For counts of detected and suppressed errors, rerun with: -v
==57543== ERROR SUMMARY: 193 errors from 6 contexts (suppressed: 1 from 1)
